Read and write .qs objects to and from a board — pin_qread • pinsqs
…
# Read the pinned data (as a `.qs` file) from the board
board %>%
  pin_qread("rock-tibble")
#> # A tibble: 48 × 4
#>     area  peri  shape  perm
#>    <int> <dbl>  <dbl> <dbl>
#>  1  4990 2792. 0.0903   6.3
#>  2  7002 3893. 0.149    6.3
#>  3  7558 3931. 0.183    6.3
#>  4  7352 3869. 0.117    6.3
#>  5  7943 3949. 0.122   17.1
#>  6  7979 4010. 0.167   17.1
#>  7  9333 4346. 0.190   17.1
#>  8  8209 4345. 0.164   17.1
#>  9  8393 3682. 0.204  119  
#> 10  6425 3099. 0.162  119  
#> # ℹ 38 more rows
…
